<svg width="40" height="41" viewBox="0 0 40 41" fill="none" xmlns="http://www.w3.org/2000/svg">
<g clip-path="url(#clip0_356_3151)">
<path d="M20 40.0911C31.0457 40.0911 40 31.1368 40 20.0911C40 9.04537 31.0457 0.0910645 20 0.0910645C8.95431 0.0910645 0 9.04537 0 20.0911C0 31.1368 8.95431 40.0911 20 40.0911Z" fill="#F07D3E"/>
<path d="M12.897 10.7653C12.3089 10.7671 11.7454 11.0016 11.3295 11.4174C10.9136 11.8333 10.6792 12.3969 10.6774 12.985V27.191C10.6792 27.7791 10.9136 28.3427 11.3295 28.7585C11.7454 29.1744 12.3089 29.4089 12.897 29.4107H20.3694C20.4174 29.4186 20.4663 29.4186 20.5142 29.4107H23.033C23.081 29.4186 23.1299 29.4186 23.1778 29.4107H27.1031C27.6912 29.4089 28.2547 29.1744 28.6706 28.7585C29.0865 28.3427 29.3209 27.7791 29.3227 27.191V12.985C29.3209 12.3969 29.0865 11.8333 28.6706 11.4174C28.2547 11.0016 27.6912 10.7671 27.1031 10.7653H12.897ZM12.897 11.6532H27.1031C27.2782 11.6523 27.4518 11.6862 27.6137 11.7528C27.7757 11.8194 27.9229 11.9175 28.0467 12.0413C28.1706 12.1652 28.2686 12.3123 28.3352 12.4743C28.4019 12.6363 28.4357 12.8099 28.4349 12.985V27.191C28.4357 27.3661 28.4019 27.5397 28.3352 27.7017C28.2686 27.8636 28.1706 28.0108 28.0467 28.1346C27.9229 28.2585 27.7757 28.3566 27.6137 28.4232C27.4518 28.4898 27.2782 28.5237 27.1031 28.5228H23.5515V22.3077H25.2475L25.8692 19.2001H23.5515V18.3123C23.5515 18.0648 23.5751 18.0454 23.6582 17.9915C23.9056 17.8907 24.173 17.8486 24.4394 17.8683H25.7713V15.3686L25.5181 15.2481C24.7558 14.9243 23.9358 14.7586 23.1077 14.7608C22.6623 14.7461 22.2195 14.8334 21.8132 15.0162C21.4068 15.1989 21.0476 15.4722 20.7631 15.8151C20.2329 16.5368 19.9638 17.4174 20 18.3123V19.2001H18.6682V22.3077H20V28.5228H12.897C12.7219 28.5237 12.5483 28.4898 12.3864 28.4232C12.2244 28.3566 12.0772 28.2585 11.9534 28.1347C11.8295 28.0108 11.7315 27.8636 11.6648 27.7017C11.5982 27.5397 11.5644 27.3661 11.5652 27.191V12.985C11.5644 12.8099 11.5982 12.6363 11.6648 12.4743C11.7315 12.3123 11.8295 12.1652 11.9534 12.0413C12.0772 11.9175 12.2244 11.8194 12.3864 11.7528C12.5483 11.6862 12.7219 11.6523 12.897 11.6532ZM23.1076 15.6486C23.7141 15.6361 24.3173 15.7418 24.8834 15.9599V16.9804H24.4394C24.0007 16.9427 23.5607 17.0353 23.1744 17.2466C23.0083 17.3686 22.8748 17.5297 22.7857 17.7155C22.6966 17.9014 22.6547 18.1063 22.6637 18.3122V20.088H24.7854L24.5192 21.4198H22.6637V28.5228H20.8879V21.4198H19.5561V20.088H20.8879V18.3123C20.8548 17.6194 21.0551 16.9355 21.4567 16.37C21.6541 16.1265 21.907 15.9338 22.1943 15.8083C22.4816 15.6827 22.7948 15.628 23.1076 15.6486Z" fill="white"/>
</g>
<defs>
<clipPath id="clip0_356_3151">
<rect width="40" height="40" fill="white" transform="translate(0 0.0910645)"/>
</clipPath>
</defs>
</svg>
