<svg width="14" height="4" viewBox="0 0 14 4" fill="none" xmlns="http://www.w3.org/2000/svg">
<path d="M10.25 2C10.25 1.03344 11.0344 0.25 12 0.249999C12.9656 0.249999 13.75 1.03344 13.75 2C13.75 2.96656 12.9656 3.75 12 3.75C11.0344 3.75 10.25 2.96656 10.25 2ZM5.25 2C5.25 1.03344 6.03438 0.25 7 0.25C7.96562 0.25 8.75 1.03344 8.75 2C8.75 2.96656 7.96562 3.75 7 3.75C6.03438 3.75 5.25 2.96656 5.25 2ZM3.75 2C3.75 2.96656 2.96563 3.75 2 3.75C1.03344 3.75 0.25 2.96656 0.25 2C0.25 1.03344 1.03344 0.25 2 0.25C2.96562 0.25 3.75 1.03344 3.75 2Z" fill="#1E88E5"/>
</svg>
