<svg width="95" height="35" viewBox="0 0 95 35" fill="none" xmlns="http://www.w3.org/2000/svg">
<g clip-path="url(#clip0_602_6)">
<path d="M76.5627 0H17.5001C7.83506 0 0 7.83504 0 17.5C0 27.1651 7.83506 35.0001 17.5001 35.0001H76.5627C86.2277 35.0001 94.0628 27.1651 94.0628 17.5C94.0628 7.83504 86.2277 0 76.5627 0Z" fill="#CCCCCC"/>
<path d="M17.5 2H17.4999C8.93956 2 2 8.93956 2 17.4999V17.5C2 26.0604 8.93956 33 17.4999 33H17.5C26.0604 33 33 26.0604 33 17.5V17.4999C33 8.93956 26.0604 2 17.5 2Z" fill="white"/>
<path d="M51.3463 25.6776C50.0326 25.6776 48.863 25.3407 47.8377 24.6669C46.8284 23.9932 46.0353 23.0387 45.4586 21.8035C44.8979 20.5683 44.6176 19.1085 44.6176 17.4241C44.6176 15.7397 44.8979 14.296 45.4586 13.0928C46.0353 11.8737 46.8284 10.9432 47.8377 10.3016C48.863 9.6439 50.0326 9.315 51.3463 9.315C52.676 9.315 53.8455 9.6439 54.8548 10.3016C55.8641 10.9432 56.6572 11.8737 57.2339 13.0928C57.8107 14.296 58.0991 15.7397 58.0991 17.4241C58.0991 19.1085 57.8107 20.5683 57.2339 21.8035C56.6572 23.0387 55.8641 23.9932 54.8548 24.6669C53.8455 25.3407 52.676 25.6776 51.3463 25.6776ZM51.3463 23.921C52.2915 23.921 53.1086 23.6563 53.7975 23.1269C54.5024 22.5815 55.0471 21.8275 55.4316 20.865C55.8161 19.8865 56.0083 18.7395 56.0083 17.4241C56.0083 15.467 55.5838 13.919 54.7347 12.78C53.8856 11.641 52.756 11.0716 51.3463 11.0716C49.9364 11.0716 48.807 11.641 47.9579 12.78C47.1087 13.919 46.6842 15.467 46.6842 17.4241C46.6842 18.7395 46.8764 19.8865 47.2609 20.865C47.6454 21.8275 48.1902 22.5815 48.8951 23.1269C49.6 23.6563 50.4171 23.921 51.3463 23.921ZM61.489 25.3888V9.6038H70.5727V11.2881H63.4836V16.63H69.4913V18.3144H63.4836V25.3888H61.489ZM73.3638 25.3888V9.6038H82.4476V11.2881H75.3584V16.63H81.3662V18.3144H75.3584V25.3888H73.3638Z" fill="white"/>
</g>
<defs>
<clipPath id="clip0_602_6">
<rect width="95" height="35" fill="white"/>
</clipPath>
</defs>
</svg>
